160
4 28 35 93 97
4 190 196 197 252
4 286 333 369 420
4 423 441 12 33
4 47 165 300 326
4 482 1 14 21
4 256 279 299 306
4 315 322 330 421
4 454 7 17 86
4 154 189 212 334
4 352 358 414 492
4 11 64 72 73
4 120 141 156 158
4 170 182 213 266
4 301 319 337 410
4 443 462 484 495
4 0 38 48 52
4 108 111 113 155
4 166 210 221 234
4 261 264 298 310
4 329 350 371 376
4 434 448 451 452
4 463 475 486 5
4 15 19 20 34
4 60 61 147 175
4 181 187 193 199
4 208 219 231 236
4 240 249 258 271
4 273 277 288 292
4 311 320 324 356
4 360 367 385 387
4 396 405 409 419
4 430 433 439 445
4 455 473 498 499
4 3 6 8 10
4 13 18 23 24
4 31 55 65 71
4 89 90 91 99
4 105 117 121 123
4 139 149 159 162
4 163 177 180 188
4 192 201 203 214
4 218 225 230 235
4 242 263 268 276
4 278 283 294 302
4 328 336 345 348
4 351 353 362 364
4 375 384 388 391
4 392 394 397 399
4 400 403 407 412
4 422 424 427 429
4 431 437 438 442
4 444 447 449 459
4 467 472 474 497
4 16 22 25 26
4 27 29 32 36
4 40 41 44 45
4 46 50 54 56
4 59 66 69 70
4 76 78 79 80
3 81 92 95
3 100 101 104
3 106 107 109
3 112 114 115
3 116 119 124
3 128 129 132
3 136 138 144
3 148 151 152
3 153 160 164
3 172 174 185
3 186 195 198
3 200 204 207
3 217 226 233
3 237 244 245
3 247 251 254
3 259 267 269
3 274 280 282
3 284 285 289
3 295 304 307
3 325 332 339
3 341 347 359
3 361 363 365
3 372 373 377
3 378 379 390
3 395 401 411
3 425 432 446
3 450 453 460
3 461 468 490
3 494 2 4
3 9 30 37
3 39 42 43
3 49 51 53
3 57 58 62
3 63 67 68
3 74 75 77
3 82 83 84
3 85 87 88
3 94 96 98
3 102 103 110
3 118 122 125
3 126 127 130
3 131 133 134
3 135 137 140
3 142 143 145
3 146 150 157
3 161 167 168
3 169 171 173
3 176 178 179
3 183 184 191
3 194 202 205
3 206 209 211
3 215 216 220
3 222 223 224
3 227 228 229
3 232 238 239
3 241 243 246
3 248 250 253
3 255 257 260
3 262 265 270
3 272 275 281
2 287 290
2 291 293
2 296 297
2 303 305
2 308 309
2 312 313
2 314 316
2 317 318
2 321 323
2 327 331
2 335 338
2 340 342
2 343 344
2 346 349
2 354 355
2 357 366
2 368 370
2 374 380
2 381 382
2 383 386
2 389 393
2 398 402
2 404 406
2 408 413
2 415 416
2 417 418
2 426 428
2 435 436
2 440 456
2 457 458
2 464 465
2 466 469
2 470 471
2 476 477
2 478 479
2 480 481
2 483 485
2 487 488
2 489 491
2 493 496
